<?xml version="1.0" encoding="UTF-8" standalone="no"?>
<svg width="13px" height="13px" viewBox="0 0 13 13" version="1.1" xmlns="http://www.w3.org/2000/svg" xmlns:xlink="http://www.w3.org/1999/xlink">
    <!-- Generator: Sketch 3.7.1 (28215) - http://www.bohemiancoding.com/sketch -->
    <title>Fill 2</title>
    <desc>Created with Sketch.</desc>
    <defs></defs>
    <g id="Style-Panel" stroke="none" stroke-width="1" fill="none" fill-rule="evenodd">
        <g id="1" transform="translate(-2037.000000, -1464.000000)" fill="#FFFFFF">
            <g id="4B-Copy-2" transform="translate(1722.000000, 1386.000000)">
                <g id="popup" transform="translate(127.000000, 0.000000)">
                    <path d="M193.682977,90.9052759 C193.410706,90.9052759 193.145811,90.7985329 192.93859,90.6013547 L188.93902,86.8023393 C188.459527,86.34794 188.404537,85.5488496 188.815626,85.0218057 C189.226715,84.4917967 189.949642,84.4310124 190.426452,84.8854117 L193.446919,87.7548729 L198.44504,79.4682011 C198.796445,78.888527 199.505959,78.7298949 200.030383,79.1175798 C200.556819,79.5052647 200.698319,80.290271 200.346915,80.8692039 L194.631232,90.3463574 C194.450165,90.6480548 194.159787,90.8474568 193.834537,90.8971219 C193.784911,90.9023108 193.732603,90.9052759 193.682977,90.9052759 L193.682977,90.9052759 Z" id="Fill-2"></path>
                </g>
            </g>
        </g>
    </g>
</svg>