<?xml version="1.0" encoding="UTF-8" standalone="no"?>
<svg width="45px" height="41px" viewBox="0 0 45 41" version="1.1" xmlns="http://www.w3.org/2000/svg" xmlns:xlink="http://www.w3.org/1999/xlink">
    <!-- Generator: Sketch 3.7 (28169) - http://www.bohemiancoding.com/sketch -->
    <title>Page 1 Copy 2</title>
    <desc>Created with Sketch.</desc>
    <defs></defs>
    <g id="Style-Panel" stroke="none" stroke-width="1" fill="none" fill-rule="evenodd">
        <g id="1" transform="translate(-89.000000, -952.000000)" fill="#FFFFFF">
            <path d="M129.292138,962.162389 C129.379138,962.059189 129.466138,961.951189 129.547738,961.836589 C130.682338,960.256789 130.937938,958.161589 130.304938,955.609189 C129.833938,953.703589 129.029938,952.576189 127.846138,952.161589 C125.964538,951.502789 124.035538,952.979389 122.169538,954.406789 C121.246138,955.114789 120.229138,955.890589 119.373538,956.270389 C117.011338,955.196389 114.229138,954.592189 111.500938,954.592189 C108.770338,954.592189 105.988738,955.196389 103.628338,956.270389 C102.775138,955.890589 101.755738,955.114789 100.832338,954.406789 C98.9663383,952.979389 97.0355383,951.502789 95.1557383,952.161589 C93.9743383,952.576189 93.1703383,953.703589 92.6969383,955.609189 C92.0645383,958.161589 92.3195383,960.256789 93.4541383,961.836589 C93.5363383,961.951189 93.6227383,962.056789 93.7097383,962.162389 C91.9541383,963.765589 87.4145383,968.996389 89.5679383,978.786589 L89.9573383,980.553589 L90.9395383,980.007589 C91.3613383,982.709989 92.7137383,987.280189 97.0403383,990.197989 L97.7759383,990.695389 L99.4049383,989.642989 C100.677538,990.535789 103.217938,992.059189 105.718738,992.059189 C105.990538,992.059189 106.262938,992.033389 106.532338,991.996189 C107.921938,992.516389 109.541338,992.818789 111.292138,992.818789 C111.365338,992.818789 111.430738,992.811589 111.500938,992.809189 C111.571138,992.811589 111.639538,992.818789 111.709738,992.818789 C113.460538,992.818789 115.079938,992.518789 116.469538,991.996189 C116.739538,992.035789 117.008938,992.059189 117.280738,992.059189 C119.783938,992.059189 122.321938,990.535789 123.594538,989.642989 L125.223538,990.695389 L125.959738,990.197989 C130.286338,987.280189 131.638738,982.709989 132.060538,980.007589 L133.042138,980.553589 L133.431538,978.786589 C135.587938,968.996389 131.050138,963.765589 129.292138,962.162389 L129.292138,962.162389 Z M123.810538,956.546389 C124.733938,955.838989 126.449338,954.528589 126.958138,954.704389 C127.063738,954.742189 127.403338,955.093789 127.691338,956.258389 C128.122738,957.997189 128.015338,959.340589 127.372738,960.249589 C127.002538,960.774589 126.487138,961.100389 126.029938,961.301989 C124.916338,959.971189 123.590338,958.787389 122.108938,957.797989 C122.685538,957.406789 123.250138,956.972989 123.810538,956.546389 L123.810538,956.546389 Z M109.975138,957.346189 L109.975138,959.671189 L106.820338,958.674589 L106.333138,960.217189 L109.825138,961.318789 L109.977538,961.667989 L109.977538,964.048789 L109.790338,963.788989 L101.300938,962.157589 L100.996138,963.744589 L108.852538,965.255989 L109.977538,967.109989 L113.038738,967.109989 L114.163738,965.255989 L122.019538,963.744589 L121.715338,962.157589 L113.225938,963.788989 L113.038738,964.048789 L113.038738,961.667989 L113.190538,961.318789 L116.683138,960.217189 L116.195338,958.674589 L113.040538,959.671189 L113.040538,957.346189 C119.122738,957.934189 125.408938,962.413189 126.782338,968.548789 C124.553338,972.020389 120.533938,972.786589 120.489538,972.793789 L120.767938,974.384989 C120.953338,974.351989 124.440538,973.707589 127.056538,970.855189 C127.056538,970.913989 127.061338,970.972189 127.061338,971.030989 C127.061338,971.588989 127.000138,972.167989 126.887938,972.760789 C124.607338,975.676189 121.096138,976.346389 121.054138,976.353589 L121.333138,977.945389 C121.478338,977.919589 123.662938,977.518789 125.858938,975.962389 C124.909738,978.146389 123.484738,980.375389 121.897738,982.372189 C121.912138,982.208389 121.923538,982.039789 121.923538,981.871189 C121.923538,979.149589 119.947738,976.888189 117.358138,976.428589 L116.345338,970.693789 L117.133138,970.466389 C117.733138,971.525389 118.946938,972.153589 120.217138,971.940589 C121.677538,971.694589 122.706538,970.423789 122.696938,968.987389 L124.462138,968.518789 L124.874338,965.621989 L113.267938,968.560789 L114.692938,976.824589 L108.322738,976.824589 L109.747738,968.560789 L98.1413383,965.621989 L98.7719383,968.576989 L100.318738,968.987389 C100.309738,970.421989 101.338738,971.694589 102.798538,971.940589 C104.068738,972.153589 105.283138,971.527789 105.883138,970.466389 L106.658938,970.761589 L105.658138,976.430989 C103.066138,976.890589 101.090338,979.151989 101.090338,981.872989 C101.090338,982.042189 101.099338,982.208389 101.116138,982.374589 C99.5291383,980.375389 98.1041383,978.146389 97.1549383,975.964789 C99.3533383,977.521189 101.535538,977.921989 101.680738,977.947189 L101.959738,976.355989 C101.917138,976.348789 98.4065383,975.678589 96.1283383,972.763189 C96.0161383,972.170389 95.9549383,971.588989 95.9549383,971.033389 C95.9549383,970.974589 95.9597383,970.916389 95.9597383,970.857589 C98.5751383,973.712389 102.062938,974.356789 102.247738,974.387389 L102.526738,972.796189 C102.482338,972.788989 98.4629383,972.022189 96.2339383,968.551189 C97.6049383,962.413189 103.892938,957.936589 109.975138,957.346189 L109.975138,957.346189 Z M95.3153383,956.255989 C95.6033383,955.091389 95.9429383,954.739789 96.0485383,954.701989 C96.5573383,954.526189 98.2727383,955.836589 99.1961383,956.544589 C99.7541383,956.972989 100.321138,957.404389 100.895338,957.796189 C99.4145383,958.787389 98.0879383,959.971189 96.9743383,961.299589 C96.5153383,961.097989 96.0017383,960.774589 95.6291383,960.247189 C94.9913383,959.340589 94.8839383,957.997189 95.3153383,956.255989 L95.3153383,956.255989 Z M100.314538,986.959189 L99.5549383,986.342989 L97.8437383,987.446389 C93.4493383,983.902789 93.4445383,977.902789 93.4445383,977.837389 L93.4637383,975.526189 L91.8791383,976.405189 C91.0937383,970.621189 93.0581383,967.025389 94.5203383,965.222989 C93.7121383,967.048789 93.2573383,969.008389 93.2573383,971.030989 C93.2573383,976.526989 97.6493383,983.108389 101.962138,987.371989 C102.004138,987.659989 102.088738,987.938989 102.189538,988.213189 C101.380738,987.755989 100.696138,987.268789 100.314538,986.959189 L100.314538,986.959189 Z M102.707338,981.875389 C102.707338,980.150389 103.827538,978.688189 105.379138,978.165589 L105.158938,979.524589 L110.500138,982.130989 C110.502538,982.201189 110.504938,982.271989 110.509738,982.339789 C110.277538,984.280189 108.625138,985.792189 106.623538,985.792189 C104.462938,985.792189 102.707338,984.034189 102.707338,981.875389 L102.707338,981.875389 Z M111.503338,990.118789 C109.379938,990.118789 104.640538,988.932589 104.640538,987.034189 C105.257338,987.271189 105.922738,987.406789 106.623538,987.406789 C108.606538,987.406789 110.525938,986.173789 111.503338,984.603589 C111.503338,984.603589 111.500938,984.605989 111.503338,984.603589 C111.505738,984.605989 111.508138,984.601189 111.510538,984.603589 C111.510538,984.603589 111.510538,984.603589 111.503338,984.603589 C112.480738,986.176189 114.400138,987.406789 116.383138,987.406789 C117.081538,987.406789 117.749338,987.271189 118.366138,987.034189 C118.366138,988.932589 113.626738,990.118789 111.503338,990.118789 L111.503338,990.118789 Z M116.383138,985.792189 C114.381538,985.792189 112.729138,984.280189 112.496938,982.339789 C112.501738,982.269589 112.504138,982.198789 112.506538,982.130989 L117.847738,979.524589 L117.627538,978.165589 C119.176738,978.688189 120.299338,980.150389 120.299338,981.875389 C120.299338,984.034189 118.543738,985.792189 116.383138,985.792189 L116.383138,985.792189 Z M131.125138,976.405189 L129.540538,975.526189 L129.559738,977.837389 C129.559738,977.900389 129.554938,983.902789 125.160538,987.446389 L123.449338,986.342989 L122.690338,986.959189 C122.310538,987.268789 121.625938,987.755989 120.812938,988.210789 C120.913738,987.936589 120.997738,987.657589 121.040338,987.369589 C125.352538,983.105989 129.744538,976.526989 129.744538,971.028589 C129.744538,969.008389 129.290338,967.046389 128.481538,965.221189 C129.946138,967.025389 131.912938,970.621189 131.125138,976.405189 L131.125138,976.405189 Z" id="Page-1-Copy-2"></path>
        </g>
    </g>
</svg>